{
    "books_id": [
        "13626147",
        "13104267",
        "11281443",
        "13605240",
        "23161937",
        "33971865",
        "13582415",
        "33978690",
        "33668146",
        "33246946",
        "33246988",
        "13583419",
        "43526428",
        "33246665",
        "33249651",
        "23161923",
        "33248971",
        "33246958",
        "33250372",
        "33978700",
        "36549951",
        "33988019",
        "33987981",
        "33249584",
        "34030524",
        "34088718",
        "30255868",
        "33247039",
        "33247003",
        "34088724"
    ],
    "link_book": [
        "/book/show/13626147-ng-i-b-n-l-l-ng",
        "/book/show/13104267-h-a-mi-m-t-m-nh",
        "/book/show/11281443-m-l-m-ng-ti-n",
        "/book/show/13605240-t-c-ng-n-t-c-d-i",
        "/book/show/23161937-t-ng-qu-n",
        "/book/show/33971865-b-t-n-hoa-s",
        "/book/show/13582415-c-ph-o-t-m",
        "/book/show/33978690-con-m-con-ma",
        "/book/show/33668146-th-m-t-nghi-p-d",
        "/book/show/33246946-k-nh-v-n-hoa-2",
        "/book/show/33246988-k-nh-v-n-hoa-4",
        "/book/show/13583419-b-n-g-i",
        "/book/show/43526428-t-p-th-nguy-n-nh-t-nh",
        "/book/show/33246665-k-nh-v-n-hoa-1",
        "/book/show/33249651-k-nh-v-n-hoa-13",
        "/book/show/23161923-b-n-ngo-i-c-a-l-p",
        "/book/show/33248971-k-nh-v-n-hoa-11",
        "/book/show/33246958-k-nh-v-n-hoa-3",
        "/book/show/33250372-k-nh-v-n-hoa-14",
        "/book/show/33978700-c-gi-o-trinh",
        "/book/show/36549951-b-m-t-c-a-t-c-ti-n",
        "/book/show/33988019-ti-n-chu-c",
        "/book/show/33987981-theo-d-u-chim-ng",
        "/book/show/33249584-k-nh-v-n-hoa-12",
        "/book/show/34030524-khu-v-n-tr-n-m-i-nh",
        "/book/show/34088718-th-m-n-b-t-ch-i",
        "/book/show/30255868-k-nh-v-n-hoa",
        "/book/show/33247039-k-nh-v-n-hoa-6",
        "/book/show/33247003-k-nh-v-n-hoa-5",
        "/book/show/34088724-thi-s-h-ng-ru-i"
    ],
    "book_title": [
        "Người bạn lạ lùng (Kính Vạn Hoa, #6)",
        "Họa mi một mình",
        "Má lúm đồng tiền",
        "Tóc ngắn tóc dài",
        "Tướng quân (Kính Vạn Hoa, #21)",
        "Bắt đền hoa sứ (Kính Vạn Hoa, #8)",
        "Cà phê áo tím",
        "Con mả con ma (Kính Vạn Hoa, #9)",
        "Thám tử nghiệp dư (Kính Vạn Hoa, #3)",
        "Kính Vạn Hoa #2",
        "Kính Vạn Hoa #4",
        "Bạn Gái",
        "Tập thơ Nguyễn Nhật Ánh",
        "Kính Vạn Hoa #1",
        "Kính Vạn Hoa #13",
        "Bên Ngoài Cửa Lớp (Kính Vạn Hoa, #32)",
        "Kính Vạn Hoa #11",
        "Kính Vạn Hoa #3",
        "Kính Vạn Hoa #14",
        "Cô giáo Trinh (Kính Vạn Hoa, #10)",
        "Bí Mật Của Tóc Tiên",
        "Tiền chuộc (Kính Vạn Hoa, #12)",
        "Theo dấu chim ưng (Kính Vạn Hoa, #11)",
        "Kính Vạn Hoa #12",
        "Khu vườn trên mái nhà (Kính Vạn Hoa, #13)",
        "Thủ môn bị từ chối (Kính Vạn Hoa, #14)",
        "Kính Vạn Hoa (Kính Vạn Hoa, #45)",
        "Kính Vạn Hoa #6",
        "Kính Vạn Hoa #5",
        "Thi sĩ hạng ruồi (Kính Vạn Hoa, #15)"
    ],
    "author": [
        [
            "Nguyễn Nhật Ánh"
        ],
        [
            "Nguyễn Nhật Ánh"
        ],
        [
            "Nguyễn Nhật Ánh"
        ],
        [
            "Nguyễn Nhật Ánh"
        ],
        [
            "Nguyễn Nhật Ánh"
        ],
        [
            "Nguyễn Nhật Ánh"
        ],
        [
            "Nguyễn Nhật Ánh"
        ],
        [
            "Nguyễn Nhật Ánh"
        ],
        [
            "Nguyễn Nhật Ánh"
        ],
        [
            "Nguyễn Nhật Ánh"
        ],
        [
            "Nguyễn Nhật Ánh"
        ],
        [
            "Nguyễn Nhật Ánh"
        ],
        [
            "Nguyễn Nhật Ánh"
        ],
        [
            "Nguyễn Nhật Ánh"
        ],
        [
            "Nguyễn Nhật Ánh"
        ],
        [
            "Nguyễn Nhật Ánh"
        ],
        [
            "Nguyễn Nhật Ánh"
        ],
        [
            "Nguyễn Nhật Ánh"
        ],
        [
            "Nguyễn Nhật Ánh"
        ],
        [
            "Nguyễn Nhật Ánh"
        ],
        [
            "Nguyễn Nhật Ánh"
        ],
        [
            "Nguyễn Nhật Ánh"
        ],
        [
            "Nguyễn Nhật Ánh"
        ],
        [
            "Nguyễn Nhật Ánh"
        ],
        [
            "Nguyễn Nhật Ánh"
        ],
        [
            "Nguyễn Nhật Ánh"
        ],
        [
            "Nguyễn Nhật Ánh"
        ],
        [
            "Nguyễn Nhật Ánh"
        ],
        [
            "Nguyễn Nhật Ánh"
        ],
        [
            "Nguyễn Nhật Ánh"
        ]
    ],
    "book_rate": [
        "  3.95",
        "  3.87",
        "  3.61",
        "  3.71",
        "  4.21",
        "  4.28",
        "  3.62",
        "  4.63",
        "  4.67",
        "  4.53",
        "  4.57",
        "  3.56",
        "  4.50",
        "  4.50",
        "  4.67",
        "  4.23",
        "  4.58",
        "  4.58",
        "  4.73",
        "  4.55",
        "  3.85",
        "  4.55",
        "  4.45",
        "  4.80",
        "  4.36",
        "  4.27",
        "  4.60",
        "  4.50",
        "  4.50",
        "  4.40"
    ],
    "description": [
        "Được tin anh mình làm cho một con búp bê biết bò, nhỏ Diệp đem ra trường khoe bạn. Nhưng ngay lần \"biểu diễn\" đầu tiên, con búp bê đã bị một thằng nhóc đi ngang đá tan tành. Nhỏ Diệp mếu máo kêu anh. Nhưng thằng nhóc kia làm Qúy ròm hoảng vía. May làm sao, Tiểu Long thình lình xuất hiện...",
        null,
        "Vòng Ngọc Thạch Anh là một học sinh con nhà giàu nhưng lười học. Để kiếm thêm tiền chơi điện tử, Quới Lương đã nhận chép bài thuê cho Thạch Anh. Sự việc bị phát hiện, mọi người tỏ vẻ khinh bỉ Quới Lương khiến cậu ta tỏ ra rất buồn. Tuy nhiên, Thạch Anh đã nhận ra tai hại của việc chép bài thuê nên sau đó đã tự nhận chép bài đầy đủ. Và Thạch Anh vẫn luôn quý mến Quới Lương, luôn coi Quới Lương là một người bạn tốt của mình.",
        null,
        "Quý ròm đóng vai Bao Công xử các vụ án trong lớp. Cuộc xử án đang hồi gay cấn thì cô giáo Trinh bước vào...",
        "Quý ròm theo Tiểu Long về quê thăm ông. Trên đường vào làng, thấy một đứa bé đang bị một bọn vây đánh, Tiểu Long và Quý ròm liền ra tay can thiệp, vô tình \"gây thù chuốc oán\" với Tắc Kè Bông, thủ lĩnh bọn trẻ trong xóm. Bao nhiêu phiền phức từ đó sinh ra.",
        null,
        "Theo lời thằng Lượm thì ngôi nhà hoang trên đồi Cắt Cỏ là nơi nhiều âm khí, cứ đến tối thứ bảy hàng tuần là lũ ma lại hiện lên đốt đèn bày tiệc. Bọn trẻ trong làng sợ \"ngôi nhà ma\" đến mức không đứa nào dám thả trâu bò ăn sát chân đồi. Vậy mà một hôm tức khí, Quý ròm một mình xồng xộc tiến lên đồi...",
        "Quý ròm và Tiểu Long và nhỏ Hạnh được gia đình cho đi nghỉ mát ở Vũng Tàu một tuần. Ngay buổi sáng dầu tiên, ba người bạn nhỏ của chúng ta đã hoảng vía khi phát hiện trên vách chùa Phật nằm những câu thơ kỳ bí đầy hăm dọa. Ai đã viết ra những câu thơ đó? Với mục đích gì? Bằng những suy luận thông minh, các bạn nhỏ dần dần lần ra dấu vết.",
        "Tập 2:- Ông thầy khó tính.- Xin lỗi mày, Tai To.- Người bạn lạ lùng.",
        "Tập 4:- Cô giáo Trinh.- Theo dấu chim ưng.- Tiền chuộc.",
        null,
        null,
        "Ra mắt tập đầu tiên từ cuối năm 1995, cho đến nay, Kính Vạn Hoa vẫn giữ kỷ lục là bộ sách dài tập nhất cho thiếu nhi, với số lượng lên tới hàng triệu bản in. Đây là lần tái bản thứ 15 của bộ sách.Ấn bản mới gồm 18 tập với minh họa của họa sĩ Đỗ Hoàng Tường - bạn tri âm tri kỷ, người đồng hành với các tác phẩm của nhà văn Nguyễn Nhật Ánh suốt hơn ba thập kỷ qua. Những minh họa trong ấn phẩm mới này được họa sĩ Đỗ Hoàng Tường trau chuốt kỹ lưỡng. Qua nét vẽ hiện đại, cá tính và đầy nghệ thuật, thế giới học trò tinh nghịch hiện lên sống động hòa quyện với những lời văn của “hoàng tử bé” Nguyễn Nhật Ánh.Tập 1: - Nhà ảo thuật.- Những con gấu bông.- Thám tử nghiệp dư.",
        "Tập 13:- Lớp phó trật tự.- Mẹ vắng nhà.- Đoàn kịch tỉnh lẻ.",
        "Thằng Cung là một thằng thù dai. Vụ thi hoạt cảnh năm ngoái đã qua lâu rồi nhưng nó vẫn nhớ mãi mối hận khom lưng làm voi cho con nhỏ KIm Em chễm chệ. Sau vụ đó, nó cứ khục khặc với Kim Em suốt. Nhưng đến cái ngày tụi con trai bên lớp 9A3 bắt đầu để ý đến đám con gái lớp 9A4 và một đứa bạo gan chuyển giấy cho nhỏ Kim Em thì Cung hoàn toàn thay đổi...",
        null,
        "Tập 3:- Bí mật kẻ trộm.- Bắt đền hoa sứ.- Con mả con ma.",
        "Tập 14:- Lang thang trong rừng.- Kho báu dưới hồ.- Gia sư.",
        "Vừa về lại thành phố, ngay ngày đầu tiên đến lớp, Tiểu Long và Quý ròm đã nghe nhỏ Hạnh thông báo một tin động trời: toàn bộ giáo án của cô Trinh dạy Văn - giáo viên chủ nhiệm lớp 8A4 - không cánh mà bay. Điều kì lạ là ngoài sổ sách ra, kẻ trộm bí mật đã không lấy đi một vật dụng đáng giá nào.",
        null,
        "Sau cuộc đụng độ với băng Dũng cò, trưa hôm sau bọn Quý ròm kín đáo quay trở lại góc đường hôm trước. Tụi Bò Lục hẹn chúng ra trường Họa Mi để chuộc sổ liên lạc. Nhưng chờ mãi vẫn không thấy bọn Bò Lục đâu...",
        "Ở Vũng Tàu về thành phố, thằng Mạnh được quý Ròm dẫn đến thăm nhỏ Hạnh. Nhìn thấy tụi thằng Tùng, Đạt, Nghị ai cũng có một chiếc cặp in hình chim ưng, Mạnh mê tít. Hôm sau nó kêu Quý ròm đẫn đi khắp thành phố lùng mua, nhưng chẳng ở đâu có. Chuyện không có gì, nhưng có \"máu hình sự\", Mạnh sinh nghi...",
        "Tập 12:- Cháu của bà.- Trúng số độc đắc.- Mười lăm ngọn nến.",
        "Ba mẹ nhỏ Hạnh trồng một vườn cây nhỏ. Ngoài các chậu hoa, khu vườn còn trồng cả tre, ổi. Hạnh và Tùng thích lắm. Nhưng khổ nỗi, mẹ con cô Bốn Loan ở căn hộ bên dưới lại tỏ ra rất ác cảm.",
        "Đội tuyển bóng đá của lớp Quý ròm và Tiểu Long lọt vào chung kết. Nhưng thủ môn giỏi của đội lại bất ngờ bị \"tẩy chay\" chỉ vì bị... ghẻ. Giờ phải làm sao đây?",
        null,
        "Tập 6:- Ba lô màu xanh.- Lọ thuốc tàng hình.- Cuộc so tài vất vả.",
        "Tập 5:- Khu vườn trên mái nhà.- Thủ môn bị từ chối.- Thi sĩ hạng ruồi.",
        "Quý ròm vốn học giởi toán chứ không giỏi ván chương, thế mà vì tự ái, cậu đã bí mật làm thơ và gửi cho báo Khăn Quàng Đỏ. Không ngờ chuyện đó làm cậu nhiều phen dở khóc dở cười."
    ],
    "reviews_book": {
        "user_id": [
            [
                "21264680",
                "67253117",
                "69004285",
                "54695033",
                "12670794",
                "18709604",
                "111415015",
                "9136579",
                "42259367",
                "80908485",
                "48182727",
                "112122241",
                "98000044",
                "24618075",
                "98689690",
                "90660285",
                "68730712",
                "49610337",
                "103859846",
                "24243723",
                "72023563",
                "39869123",
                "7225725",
                "10834398",
                "107550525",
                "18061278",
                "96547666",
                "88252354",
                "115425152",
                "3422776"
            ],
            [
                "34355947",
                "72023563",
                "8290358",
                "16515417",
                "18061278",
                "2755169",
                "98000044",
                "39869123",
                "48182727",
                "5297824",
                "111415015",
                "54695033",
                "5877521",
                "53433900",
                "20152552",
                "5926677",
                "103859846",
                "11383246",
                "69473892",
                "33768235",
                "15990185",
                "3422776",
                "12670794",
                "10834398",
                "6510340",
                "72571913",
                "67253117",
                "49610337",
                "118756820",
                "115425152"
            ],
            [
                "2439052",
                "47037988",
                "4200045",
                "21726631",
                "23385785",
                "6289113",
                "111415015",
                "107550525",
                "39869123",
                "15990185",
                "24138398",
                "80405136",
                "67253117",
                "6510340",
                "52736003",
                "96547666",
                "3355575",
                "34589078",
                "4498650",
                "8290358",
                "54695033",
                "50159524",
                "6512932",
                "10834398",
                "2919859",
                "4365464",
                "6910670",
                "5011787",
                "49610337",
                "6387467"
            ],
            [
                "28999917",
                "42547661",
                "33768235",
                "33003775",
                "67253117",
                "72571913",
                "21628629",
                "115425152",
                "111415015",
                "39869123",
                "96547666",
                "103859846",
                "15990185",
                "2755169",
                "20152552",
                "107550525",
                "72023563",
                "67199121",
                "21726631",
                "49610337",
                "34720245",
                "9136579",
                "48182727",
                "10834398",
                "3422776",
                "8502897",
                "14378339",
                "20089872",
                "23854400",
                "25219833",
                "26475862",
                "30592575",
                "28028619",
                "32292154",
                "33164295",
                "34622629",
                "19631435",
                "40493446",
                "24138398",
                "26025120",
                "10079726",
                "43121964",
                "46250915"
            ],
            [
                "78077460",
                "48182727",
                "112122241",
                "12670794",
                "24138398",
                "60929440",
                "65601067",
                "21628629",
                "21262344",
                "111415015",
                "88252354",
                "43309162",
                "42259367",
                "107550525",
                "96547666",
                "34589078",
                "98000044",
                "49610337",
                "67253117",
                "52985085",
                "48914126",
                "34028181",
                "61353011",
                "78940350",
                "62861528",
                "82626146",
                "78108158",
                "88670664",
                "70089371",
                "76884783",
                "93384629",
                "36905271",
                "109370694",
                "69271750",
                "69293900"
            ],
            [
                "21264680",
                "69529689",
                "73260930",
                "31582378",
                "80908485",
                "12670794",
                "94693713",
                "96547666",
                "77547360",
                "112122241",
                "74882812",
                "111415015",
                "42339401",
                "66488787",
                "90593718",
                "67253117",
                "96521416",
                "88252354",
                "61825975",
                "71509851",
                "78940350",
                "69830464",
                "84872228",
                "62861528",
                "82626146",
                "88670664",
                "70089371",
                "76884783",
                "91386643",
                "93384629",
                "69293900",
                "69271750",
                "114626076"
            ],
            [
                "9136579",
                "96547666",
                "2755169",
                "42259367",
                "107550525",
                "75881480",
                "12670794",
                "10834398",
                "15990185",
                "39869123",
                "34720245",
                "67253117",
                "49610337",
                "88252354",
                "33768235",
                "72571913",
                "111415015",
                "115425152",
                "100776772",
                "3422776",
                "20152552",
                "8502897",
                "14378339",
                "24119644",
                "24483412",
                "24807563",
                "19519833",
                "34622629",
                "27958647",
                "36903462",
                "19631435",
                "40807242",
                "24138398",
                "26025120",
                "43523601",
                "48182727",
                "52985085",
                "54695033",
                "34028181",
                "56126995"
            ],
            [
                "21264680",
                "47070655",
                "31582378",
                "107550525",
                "111415015",
                "64594786",
                "98000044",
                "67253117",
                "88252354",
                "80240260",
                "96547666",
                "81419744",
                "118756820",
                "112122241",
                "80908485",
                "90593718",
                "55179177",
                "71509851",
                "78940350",
                "78489550",
                "80682788",
                "69830464",
                "62861528",
                "82626146",
                "94816334",
                "88670664",
                "88399255",
                "97534292",
                "70089371",
                "76884783",
                "93384629",
                "86515335",
                "104363194",
                "109466906",
                "69271750",
                "109957559"
            ],
            [
                "21264680",
                "81419744",
                "33768235",
                "111415015",
                "107550525",
                "112122241",
                "47070655",
                "12670794",
                "118756820",
                "80908485",
                "98000044",
                "67253117",
                "96547666",
                "88252354",
                "31582378",
                "55179177",
                "71509851",
                "78940350",
                "69830464",
                "84872228",
                "62861528",
                "82626146",
                "88670664",
                "70089371",
                "76884783",
                "93384629",
                "101779738",
                "69271750",
                "69293900",
                "115005922",
                "69573653",
                "114599445"
            ],
            [
                "98729632",
                "67253117",
                "62139773",
                "74794622",
                "107550525",
                "91428917",
                "31582378",
                "88252354",
                "98000044",
                "51598364",
                "112122241",
                "29461619",
                "111415015",
                "69707070",
                "110941832",
                "67367636",
                "63204051",
                "82626146",
                "94693713",
                "88670664",
                "70089371",
                "76884783",
                "93384629",
                "98748488",
                "105118093",
                "74770362",
                "113407449",
                "69573653",
                "114599445",
                "119888778"
            ],
            [
                "73105917",
                "110941832",
                "111415015",
                "62139773",
                "98000044",
                "98729632",
                "88252354",
                "69707070",
                "107550525",
                "88670664",
                "91428917",
                "62587626",
                "112122241",
                "67253117",
                "67367636",
                "73094547",
                "63204051",
                "22898686",
                "82626146",
                "95632804",
                "70089371",
                "76884783",
                "31582378",
                "93384629",
                "98748488",
                "113407449",
                "29461619",
                "69573653",
                "114599445",
                "24011695"
            ],
            [
                "111415015",
                "9136579",
                "15990185",
                "39869123",
                "115425152",
                "20152552",
                "11383246",
                "33768235",
                "49610337",
                "10834398",
                "67253117",
                "21628629",
                "88252354",
                "103859846",
                "24243723",
                "65816867",
                "96547666",
                "2755169",
                "3422776",
                "8502897",
                "14378339",
                "20176554",
                "24136639",
                "27646097",
                "27958617",
                "34622629",
                "37588466",
                "24138398",
                "34928394",
                "26025120",
                "42084019",
                "43356454",
                "49628675",
                "52985085",
                "54695033",
                "48914126",
                "42259367",
                "34028181",
                "56126995"
            ],
            [
                "117293961",
                "80421251",
                "90696119",
                "109960024",
                "75241956",
                "24011695",
                "103050264",
                "111714267",
                "84630142",
                "95184205",
                "109039462",
                "71442277",
                "110988371",
                "51783120",
                "91995767",
                "65188012",
                "89860150",
                "93484484",
                "91836615",
                "67908200",
                "93350350",
                "70089371",
                "76884783",
                "83327032",
                "93104285",
                "98000044",
                "58342892",
                "100975609",
                "101043212",
                "90004083",
                "75757125",
                "91936450",
                "87396551",
                "105894322",
                "107144638",
                "108265960"
            ],
            [
                "55139874",
                "88670664",
                "69707070",
                "67253117",
                "74770362",
                "111415015",
                "88252354",
                "31582378",
                "51598364",
                "110941832",
                "98729632",
                "29461619",
                "112122241",
                "105173358",
                "67912118",
                "67367636",
                "75573458",
                "78179323",
                "63204051",
                "81882726",
                "82626146",
                "91738092",
                "70089371",
                "76884783",
                "98092803",
                "93384629",
                "98748488",
                "99031475",
                "113407449",
                "104169544"
            ],
            [
                "31582378",
                "62587626",
                "107550525",
                "109773997",
                "88670664",
                "88252354",
                "67253117",
                "112122241",
                "62139773",
                "79520305",
                "98729632",
                "62591728",
                "67367636",
                "63204051",
                "82626146",
                "70089371",
                "76884783",
                "93384629",
                "98748488",
                "29461619",
                "114626076",
                "24947894"
            ],
            [
                "88252354",
                "96547666",
                "67253117",
                "21262344",
                "42259367",
                "111415015",
                "98000044",
                "34589078",
                "90593718",
                "24138398",
                "49610337",
                "48182727",
                "106211249",
                "43523601",
                "43309162",
                "52985085",
                "34028181",
                "71509851",
                "78940350",
                "82626146",
                "88670664",
                "70089371",
                "76884783",
                "93384629",
                "69271750",
                "88215245",
                "114626076",
                "115005922",
                "119888778"
            ],
            [
                "98729632",
                "88670664",
                "67253117",
                "62139773",
                "109773997",
                "88252354",
                "98000044",
                "105173358",
                "62591728",
                "107550525",
                "98832704",
                "62587626",
                "67367636",
                "63204051",
                "82626146",
                "70089371",
                "76884783",
                "31582378",
                "93384629",
                "98748488",
                "88215245",
                "29461619",
                "114626076",
                "24947894"
            ],
            [
                "67253117",
                "118790921",
                "98000044",
                "110941832",
                "88252354",
                "107550525",
                "62587626",
                "112122241",
                "62139773",
                "98729632",
                "69707070",
                "94880407",
                "51598364",
                "67367636",
                "63204051",
                "89181427",
                "89228561",
                "82626146",
                "88670664",
                "70089371",
                "76884783",
                "31582378",
                "93384629",
                "98748488",
                "70384838",
                "113407449",
                "29461619",
                "119888778"
            ],
            [
                "91428917",
                "62139773",
                "107550525",
                "88252354",
                "98000044",
                "88670664",
                "62591728",
                "31582378",
                "98729632",
                "67253117",
                "79520305",
                "67367636",
                "78940350",
                "63204051",
                "82626146",
                "70089371",
                "76884783",
                "93384629",
                "98748488",
                "69293900",
                "29461619",
                "114626076",
                "24947894"
            ],
            [
                "21264680",
                "112122241",
                "80908485",
                "66707189",
                "88670664",
                "88252354",
                "96547666",
                "31582378",
                "107550525",
                "54494721",
                "12670794",
                "47070655",
                "55179177",
                "71509851",
                "78940350",
                "84872228",
                "62861528",
                "82626146",
                "78108158",
                "70089371",
                "76884783",
                "93384629",
                "69271750",
                "69293900",
                "114626076",
                "115005922"
            ],
            [
                "85763689",
                "54675550",
                "28139223",
                "80322679",
                "81654125",
                "95421431",
                "65363467",
                "83881306",
                "54877084",
                "67493371",
                "68097665",
                "80682788",
                "103859846",
                "83947911",
                "82626146",
                "88670664",
                "18446231",
                "70089371",
                "76884783",
                "98000044",
                "75757125",
                "105489843",
                "106211249",
                "96659094",
                "69271750",
                "109957559",
                "68951858",
                "16216474",
                "111279972",
                "71278453"
            ],
            [
                "21264680",
                "88252354",
                "31582378",
                "47070655",
                "54494721",
                "80405136",
                "96547666",
                "98000044",
                "107550525",
                "112122241",
                "67253117",
                "18697163",
                "55179177",
                "71509851",
                "78940350",
                "69830464",
                "62861528",
                "82626146",
                "78108158",
                "88670664",
                "70089371",
                "76884783",
                "93384629",
                "106211249",
                "69271750",
                "69293900",
                "107860159",
                "114626076",
                "115005922",
                "119888778"
            ],
            [
                "21264680",
                "88252354",
                "98000044",
                "62591728",
                "31582378",
                "96547666",
                "21628629",
                "67253117",
                "64594786",
                "112122241",
                "107550525",
                "55179177",
                "71509851",
                "78940350",
                "65104524",
                "69830464",
                "84872228",
                "62861528",
                "82626146",
                "78108158",
                "88670664",
                "70089371",
                "76884783",
                "93384629",
                "69271750",
                "114626076",
                "115005922",
                "119888778",
                "119983772"
            ],
            [
                "62591728",
                "31582378",
                "88252354",
                "98729632",
                "98000044",
                "67253117",
                "109773997",
                "62139773",
                "79520305",
                "107550525",
                "67367636",
                "63204051",
                "82626146",
                "70089371",
                "76884783",
                "93384629",
                "98748488",
                "29461619",
                "114626076",
                "24947894"
            ],
            [
                "21264680",
                "67253117",
                "69083861",
                "12670794",
                "42339401",
                "31582378",
                "88252354",
                "112122241",
                "96547666",
                "21628629",
                "87223418",
                "18697163",
                "12580871",
                "72736523",
                "71509851",
                "78940350",
                "76422679",
                "84872228",
                "62861528",
                "82626146",
                "78108158",
                "70089371",
                "76884783",
                "93384629",
                "104556423",
                "69271750",
                "109957559",
                "88215245",
                "114626076",
                "115005922",
                "58477082"
            ],
            [
                "21264680",
                "88252354",
                "112122241",
                "21628629",
                "64594786",
                "90593718",
                "31582378",
                "96547666",
                "98000044",
                "67253117",
                "12670794",
                "18697163",
                "71509851",
                "78940350",
                "62861528",
                "91237930",
                "82626146",
                "78108158",
                "88670664",
                "70089371",
                "76884783",
                "93384629",
                "100585826",
                "69271750",
                "88215245",
                "114626076",
                "115005922",
                "119888778",
                "119983772"
            ],
            [
                "53315882",
                "107550525",
                "88252354",
                "98000044",
                "96547666",
                "93377045",
                "112905087",
                "54494721",
                "70786526",
                "67253117",
                "56302461",
                "69293900",
                "70903144",
                "82626146",
                "88670664",
                "70089371",
                "76884783",
                "93384629",
                "87808452",
                "65001189",
                "114626076"
            ],
            [
                "98729632",
                "67253117",
                "63204051",
                "112122241",
                "105173358",
                "110941832",
                "88252354",
                "88670664",
                "69707070",
                "62139773",
                "67367636",
                "82626146",
                "96358953",
                "70089371",
                "76884783",
                "93384629",
                "98748488",
                "29461619"
            ],
            [
                "98000044",
                "112122241",
                "98729632",
                "88252354",
                "107550525",
                "69707070",
                "62587626",
                "67253117",
                "110941832",
                "62139773",
                "67367636",
                "78940350",
                "63204051",
                "82626146",
                "76884783",
                "31582378",
                "93384629",
                "98748488",
                "113407449",
                "29461619"
            ],
            [
                "21264680",
                "21628629",
                "107550525",
                "96547666",
                "112122241",
                "88252354",
                "118756820",
                "67253117",
                "31582378",
                "90593718",
                "18697163",
                "63447758",
                "71509851",
                "78940350",
                "80682788",
                "82336425",
                "62861528",
                "82626146",
                "78108158",
                "92882972",
                "70089371",
                "76884783",
                "93384629",
                "69271750",
                "88215245",
                "69293900",
                "114626076",
                "115005922",
                "119888778",
                "119983772"
            ]
        ],
        "user_name": [
            [
                "Uyên Khôi",
                "Kido",
                "Nguyên Cao",
                "Duy Dinh",
                "Khuu Bao",
                "Ly",
                "Dương Phú",
                "afloatingpoint",
                "Huyền Trang",
                "Tuan Truong",
                "Tien",
                "Linh",
                "phuong191",
                "Pham ",
                "Hải Minh Nguyễn",
                "Lan Nhi Nguyen",
                "Bánh Quy Tẩm Đường",
                "Thy",
                "Linh Chi",
                "Anh",
                "Thanh Phương (Tink)",
                "Tong Thai Son",
                "An.quynh",
                "Thai Son",
                "Duong",
                "Luong Titi",
                "Lê Ngọc Nguyên Phương",
                "Lê Phan Quỳnh",
                "Thùy Anh",
                "Thanh"
            ],
            [
                "Ngọc Thảo",
                "Thanh Phương (Tink)",
                "Sky4649",
                "Xuân   Nhất",
                "Luong Titi",
                "Anh",
                "phuong191",
                "Tong Thai Son",
                "Tien",
                "Cmeo",
                "Dương Phú",
                "Duy Dinh",
                "Keng",
                "Thu Thao",
                "Kaoyashi",
                "Jane",
                "Linh Chi",
                "Minh Khang",
                "Giang",
                "Phuong Thao Dinh T.",
                "Diem Do",
                "Thanh",
                "Khuu Bao",
                "Thai Son",
                "Rain",
                "Sachhadoc",
                "Kido",
                "Thy",
                "kem cá nyom nyom",
                "Thùy Anh"
            ],
            [
                "umi tran",
                "Hoai  Linh",
                "Hoang Trang",
                "Quocuongvl",
                "ren",
                "Nguyễn Hoàng",
                "Dương Phú",
                "Duong",
                "Tong Thai Son",
                "Diem Do",
                "L. Brainy",
                "Meow",
                "Kido",
                "Rain",
                "Kaitodc",
                "Lê Ngọc Nguyên Phương",
                "Huy Pham",
                "Anh Thu Le",
                "Anh Le",
                "Sky4649",
                "Duy Dinh",
                "Anh Le",
                "Van Nguyen",
                "Thai Son",
                "Đoàn Duy",
                "Nhu",
                "Nhung Nguyen",
                "Huyen",
                "Thy",
                "Kid"
            ],
            [
                "Ngọc Mai",
                "Tài Nguyễn",
                "Phuong Thao Dinh T.",
                "grassybrownie",
                "Kido",
                "Sachhadoc",
                "Khánh Ngô",
                "Thùy Anh",
                "Dương Phú",
                "Tong Thai Son",
                "Lê Ngọc Nguyên Phương",
                "Linh Chi",
                "Diem Do",
                "Anh",
                "Kaoyashi",
                "Duong",
                "Thanh Phương (Tink)",
                "Shakugan",
                "Quocuongvl",
                "Thy",
                "Bonnie1206",
                "afloatingpoint",
                "Tien",
                "Thai Son",
                "Thanh",
                "Poli Pham",
                "Le Uyen",
                "Trâm Con nít",
                "Sunkid",
                "Vobinhnguyen",
                "Thuan Nguyen",
                "Vân",
                "Đinh",
                "Đời Là",
                "Ngọckute",
                "Nhật Thành",
                "Trinh My",
                "Sun Tün",
                "L. Brainy",
                "Ninh Trần",
                "Hadown",
                "Quẩy Chà",
                "Thầy Long"
            ],
            [
                "Amaya",
                "Tien",
                "Linh",
                "Khuu Bao",
                "L. Brainy",
                "hoabinh",
                "Hong Dao",
                "Khánh Ngô",
                "Bùi Khoa",
                "Dương Phú",
                "Lê Phan Quỳnh",
                "Tram",
                "Huyền Trang",
                "Duong",
                "Lê Ngọc Nguyên Phương",
                "Anh Thu Le",
                "phuong191",
                "Thy",
                "Kido",
                "Vubjnu",
                "Nguyễn Hương",
                "Ann",
                "Truc",
                "Nthongyen",
                "Thuy Nguyen",
                "Linh Dương",
                "Mimyysomething",
                "Oanh Oanh",
                "Đan Trần",
                "Tu Do Thu Ha",
                "bong",
                "Hoàng",
                "Khánh Lâm",
                "Dang Minh Ngoc",
                "Sách Chuyền Tay"
            ],
            [
                "Uyên Khôi",
                "Ngọc Ánh",
                "Nguyễn Trâm",
                "Giang Nguyen",
                "Tuan Truong",
                "Khuu Bao",
                "Quang",
                "Lê Ngọc Nguyên Phương",
                "Kim Phuong",
                "Linh",
                "Đỗ Văn",
                "Dương Phú",
                "thucnu",
                "Thư",
                "Linh Kana",
                "Kido",
                "Nguyen Gia Khanh",
                "Lê Phan Quỳnh",
                "Hoang Anh",
                "Mia Duong",
                "Nthongyen",
                "Binh",
                "thư",
                "Thuy Nguyen",
                "Linh Dương",
                "Oanh Oanh",
                "Đan Trần",
                "Tu Do Thu Ha",
                "Trần Hưng",
                "bong",
                "Sách Chuyền Tay",
                "Dang Minh Ngoc",
                "Phạm Thị  Ngát "
            ],
            [
                "afloatingpoint",
                "Lê Ngọc Nguyên Phương",
                "Anh",
                "Huyền Trang",
                "Duong",
                "Tung Nguyen",
                "Khuu Bao",
                "Thai Son",
                "Diem Do",
                "Tong Thai Son",
                "Bonnie1206",
                "Kido",
                "Thy",
                "Lê Phan Quỳnh",
                "Phuong Thao Dinh T.",
                "Sachhadoc",
                "Dương Phú",
                "Thùy Anh",
                "Hongg Nhii",
                "Thanh",
                "Kaoyashi",
                "Poli Pham",
                "Le Uyen",
                "Trần Thiết",
                "Hoai Phuc",
                "Nguyễn Thắng",
                "Black Potter",
                "Nhật Thành",
                "Mong Tham",
                "Anh Buồn",
                "Trinh My",
                "Thao",
                "L. Brainy",
                "Ninh Trần",
                "Bich Tuyen",
                "Tien",
                "Vubjnu",
                "Duy Dinh",
                "Ann",
                "Hèm Tẹt"
            ],
            [
                "Uyên Khôi",
                "선 하",
                "Giang Nguyen",
                "Duong",
                "Dương Phú",
                "Hung Phan",
                "phuong191",
                "Kido",
                "Lê Phan Quỳnh",
                "Le Phuong Anh",
                "Lê Ngọc Nguyên Phương",
                "Quỳnh Châm  Jewel",
                "kem cá nyom nyom",
                "Linh",
                "Tuan Truong",
                "Linh Kana",
                "Thu Pham",
                "Mia Duong",
                "Nthongyen",
                "Yên Trần",
                "Phạm Thủy",
                "Binh",
                "Thuy Nguyen",
                "Linh Dương",
                "viet nam",
                "Oanh Oanh",
                "Nguyen Thuy Duong",
                "Thuong Nguyen",
                "Đan Trần",
                "Tu Do Thu Ha",
                "bong",
                "Ly Phi Long",
                "Jade",
                "Hai Tran",
                "Dang Minh Ngoc",
                "sa xau cho"
            ],
            [
                "Uyên Khôi",
                "Quỳnh Châm  Jewel",
                "Phuong Thao Dinh T.",
                "Dương Phú",
                "Duong",
                "Linh",
                "선 하",
                "Khuu Bao",
                "kem cá nyom nyom",
                "Tuan Truong",
                "phuong191",
                "Kido",
                "Lê Ngọc Nguyên Phương",
                "Lê Phan Quỳnh",
                "Giang Nguyen",
                "Thu Pham",
                "Mia Duong",
                "Nthongyen",
                "Binh",
                "thư",
                "Thuy Nguyen",
                "Linh Dương",
                "Oanh Oanh",
                "Đan Trần",
                "Tu Do Thu Ha",
                "bong",
                "HIP",
                "Dang Minh Ngoc",
                "Sách Chuyền Tay",
                "Phương Anh",
                "Anne Wang",
                "Mikachan2901 Minh Anh Nguyen"
            ],
            [
                "Huyền Chi",
                "Kido",
                "Thang Truong",
                "Bambi910",
                "Duong",
                "Nguyễn Ngọc",
                "Giang Nguyen",
                "Lê Phan Quỳnh",
                "phuong191",
                "Mai Huy Hoàng",
                "Linh",
                "Wireless LAN",
                "Dương Phú",
                "Đàm Thanh",
                "Trang Cao",
                "Thu Hien",
                "Nguyen Hai Long",
                "Linh Dương",
                "Quang",
                "Oanh Oanh",
                "Đan Trần",
                "Tu Do Thu Ha",
                "bong",
                "Thanh Hung",
                "Tiến Trần",
                "Ling",
                "Thanh",
                "Anne Wang",
                "Mikachan2901 Minh Anh Nguyen",
                "Pham Nhat Quang"
            ],
            [
                "Mezuna Yorin",
                "Trang Cao",
                "Dương Phú",
                "Thang Truong",
                "phuong191",
                "Huyền Chi",
                "Lê Phan Quỳnh",
                "Đàm Thanh",
                "Duong",
                "Oanh Oanh",
                "Nguyễn Ngọc",
                "Vi Vo",
                "Linh",
                "Kido",
                "Thu Hien",
                "Maika",
                "Nguyen Hai Long",
                "Nuong Nguyen",
                "Linh Dương",
                "Ngoc Han",
                "Đan Trần",
                "Tu Do Thu Ha",
                "Giang Nguyen",
                "bong",
                "Thanh Hung",
                "Thanh",
                "Wireless LAN",
                "Anne Wang",
                "Mikachan2901 Minh Anh Nguyen",
                "May"
            ],
            [
                "Dương Phú",
                "afloatingpoint",
                "Diem Do",
                "Tong Thai Son",
                "Thùy Anh",
                "Kaoyashi",
                "Minh Khang",
                "Phuong Thao Dinh T.",
                "Thy",
                "Thai Son",
                "Kido",
                "Khánh Ngô",
                "Lê Phan Quỳnh",
                "Linh Chi",
                "Anh",
                "Minh Tam",
                "Lê Ngọc Nguyên Phương",
                "Anh",
                "Thanh",
                "Poli Pham",
                "Le Uyen",
                "Mit",
                "Qui Phan",
                "Sok",
                "Tran Nguyen",
                "Nhật Thành",
                "Duy Tùng",
                "L. Brainy",
                "Le Hoai",
                "Ninh Trần",
                "Quoc Huy",
                "Hang Quach",
                "Non Cú",
                "Vubjnu",
                "Duy Dinh",
                "Nguyễn Hương",
                "Huyền Trang",
                "Ann",
                "Hèm Tẹt"
            ],
            [
                "Pham Tuan Thanh",
                "Phạm Thu Quỳnh",
                "Quỳnhh Bee ",
                "okiwako hoshiko",
                "Danny",
                "May",
                "Le Na",
                "Dung",
                "hoang trung nguyen",
                "Pippo",
                "Jennifer",
                "Quang Tri",
                "hong anh",
                "Hoàng Hiếu",
                "Pax Kent",
                "Hiền Thanh",
                "Sinh",
                "An Tran",
                "Tuan Nguyen",
                "ThiênVy",
                "Dinh Thi",
                "Đan Trần",
                "Tu Do Thu Ha",
                "Cuong Dinh",
                "Jenny Jowie",
                "phuong191",
                "Long Hiep",
                "mai",
                "Uyen Uyen",
                "Ta Vu Vi Anh",
                "Nương Ngọc",
                "Huyền Khánhh",
                "kacimax",
                "Trần Hoàng",
                "Nguyễn Phương Hoàng",
                "hoangdung"
            ],
            [
                "Thắng",
                "Oanh Oanh",
                "Đàm Thanh",
                "Kido",
                "Ling",
                "Dương Phú",
                "Lê Phan Quỳnh",
                "Giang Nguyen",
                "Mai Huy Hoàng",
                "Trang Cao",
                "Huyền Chi",
                "Wireless LAN",
                "Linh",
                "Kieu Nguyen",
                "Nguyen Huong",
                "Thu Hien",
                "Thao",
                "Thành Mai",
                "Nguyen Hai Long",
                "Sinh Nhất",
                "Linh Dương",
                "Sơn Hải",
                "Đan Trần",
                "Tu Do Thu Ha",
                "TienHo",
                "bong",
                "Thanh Hung",
                "Tran Lien",
                "Thanh",
                "Vy"
            ],
            [
                "Giang Nguyen",
                "Vi Vo",
                "Duong",
                "pham ngoc linh",
                "Oanh Oanh",
                "Lê Phan Quỳnh",
                "Kido",
                "Linh",
                "Thang Truong",
                "Gia-Thao Do-Tran",
                "Huyền Chi",
                "Anh Hoàng",
                "Thu Hien",
                "Nguyen Hai Long",
                "Linh Dương",
                "Đan Trần",
                "Tu Do Thu Ha",
                "bong",
                "Thanh Hung",
                "Wireless LAN",
                "Phạm Thị  Ngát ",
                "Ban Bong"
            ],
            [
                "Lê Phan Quỳnh",
                "Lê Ngọc Nguyên Phương",
                "Kido",
                "Bùi Khoa",
                "Huyền Trang",
                "Dương Phú",
                "phuong191",
                "Anh Thu Le",
                "Linh Kana",
                "L. Brainy",
                "Thy",
                "Tien",
                "Derick Pham",
                "Bich Tuyen",
                "Tram",
                "Vubjnu",
                "Ann",
                "Mia Duong",
                "Nthongyen",
                "Linh Dương",
                "Oanh Oanh",
                "Đan Trần",
                "Tu Do Thu Ha",
                "bong",
                "Dang Minh Ngoc",
                "Hoang Hien",
                "Phạm Thị  Ngát ",
                "Phương Anh",
                "Pham Nhat Quang"
            ],
            [
                "Huyền Chi",
                "Oanh Oanh",
                "Kido",
                "Thang Truong",
                "pham ngoc linh",
                "Lê Phan Quỳnh",
                "phuong191",
                "Kieu Nguyen",
                "Anh Hoàng",
                "Duong",
                "Quoc Cuong DINH",
                "Vi Vo",
                "Thu Hien",
                "Nguyen Hai Long",
                "Linh Dương",
                "Đan Trần",
                "Tu Do Thu Ha",
                "Giang Nguyen",
                "bong",
                "Thanh Hung",
                "Hoang Hien",
                "Wireless LAN",
                "Phạm Thị  Ngát ",
                "Ban Bong"
            ],
            [
                "Kido",
                "Ngô Hương",
                "phuong191",
                "Trang Cao",
                "Lê Phan Quỳnh",
                "Duong",
                "Vi Vo",
                "Linh",
                "Thang Truong",
                "Huyền Chi",
                "Đàm Thanh",
                "Hồng Khanh",
                "Mai Huy Hoàng",
                "Thu Hien",
                "Nguyen Hai Long",
                "Đình Thuận",
                "Đình Thuận",
                "Linh Dương",
                "Oanh Oanh",
                "Đan Trần",
                "Tu Do Thu Ha",
                "Giang Nguyen",
                "bong",
                "Thanh Hung",
                "Hoàng Ngô",
                "Thanh",
                "Wireless LAN",
                "Pham Nhat Quang"
            ],
            [
                "Nguyễn Ngọc",
                "Thang Truong",
                "Duong",
                "Lê Phan Quỳnh",
                "phuong191",
                "Oanh Oanh",
                "Anh Hoàng",
                "Giang Nguyen",
                "Huyền Chi",
                "Kido",
                "Gia-Thao Do-Tran",
                "Thu Hien",
                "Nthongyen",
                "Nguyen Hai Long",
                "Linh Dương",
                "Đan Trần",
                "Tu Do Thu Ha",
                "bong",
                "Thanh Hung",
                "Sách Chuyền Tay",
                "Wireless LAN",
                "Phạm Thị  Ngát ",
                "Ban Bong"
            ],
            [
                "Uyên Khôi",
                "Linh",
                "Tuan Truong",
                "Hien Trinh",
                "Oanh Oanh",
                "Lê Phan Quỳnh",
                "Lê Ngọc Nguyên Phương",
                "Giang Nguyen",
                "Duong",
                "Dương Nguyễn",
                "Khuu Bao",
                "선 하",
                "Thu Pham",
                "Mia Duong",
                "Nthongyen",
                "thư",
                "Thuy Nguyen",
                "Linh Dương",
                "Mimyysomething",
                "Đan Trần",
                "Tu Do Thu Ha",
                "bong",
                "Dang Minh Ngoc",
                "Sách Chuyền Tay",
                "Phạm Thị  Ngát ",
                "Phương Anh"
            ],
            [
                "Thu Phong",
                "Lan Anh Le",
                "Ngoc Mai Anh Dao ",
                "tran sy loi",
                "Đoàn Minh Tuấn",
                "khanhjhr",
                "Khanh Ly",
                "Nhat Vi Luong",
                "Sam Soon",
                "Mai Mai",
                "Sơn",
                "Phạm Thủy",
                "Linh Chi",
                "Vy Tran",
                "Linh Dương",
                "Oanh Oanh",
                "Xuan",
                "Đan Trần",
                "Tu Do Thu Ha",
                "phuong191",
                "Nương Ngọc",
                "Quynh-Nhi Thai",
                "Derick Pham",
                "Lê Hiếu",
                "Dang Minh Ngoc",
                "sa xau cho",
                "Nguyen Viet Phuong",
                "Thi",
                "Dong Nguyen",
                "Kylie Kieu Trinh"
            ],
            [
                "Uyên Khôi",
                "Lê Phan Quỳnh",
                "Giang Nguyen",
                "선 하",
                "Dương Nguyễn",
                "Meow",
                "Lê Ngọc Nguyên Phương",
                "phuong191",
                "Duong",
                "Linh",
                "Kido",
                "Luan Le",
                "Thu Pham",
                "Mia Duong",
                "Nthongyen",
                "Binh",
                "Thuy Nguyen",
                "Linh Dương",
                "Mimyysomething",
                "Oanh Oanh",
                "Đan Trần",
                "Tu Do Thu Ha",
                "bong",
                "Derick Pham",
                "Dang Minh Ngoc",
                "Sách Chuyền Tay",
                "Ngoc Anh",
                "Phạm Thị  Ngát ",
                "Phương Anh",
                "Pham Nhat Quang"
            ],
            [
                "Uyên Khôi",
                "Lê Phan Quỳnh",
                "phuong191",
                "Anh Hoàng",
                "Giang Nguyen",
                "Lê Ngọc Nguyên Phương",
                "Khánh Ngô",
                "Kido",
                "Hung Phan",
                "Linh",
                "Duong",
                "Thu Pham",
                "Mia Duong",
                "Nthongyen",
                "Alex Thao P. Luu",
                "Binh",
                "thư",
                "Thuy Nguyen",
                "Linh Dương",
                "Mimyysomething",
                "Oanh Oanh",
                "Đan Trần",
                "Tu Do Thu Ha",
                "bong",
                "Dang Minh Ngoc",
                "Phạm Thị  Ngát ",
                "Phương Anh",
                "Pham Nhat Quang",
                "Huy-Thang Cu"
            ],
            [
                "Anh Hoàng",
                "Giang Nguyen",
                "Lê Phan Quỳnh",
                "Huyền Chi",
                "phuong191",
                "Kido",
                "pham ngoc linh",
                "Thang Truong",
                "Gia-Thao Do-Tran",
                "Duong",
                "Thu Hien",
                "Nguyen Hai Long",
                "Linh Dương",
                "Đan Trần",
                "Tu Do Thu Ha",
                "bong",
                "Thanh Hung",
                "Wireless LAN",
                "Phạm Thị  Ngát ",
                "Ban Bong"
            ],
            [
                "Uyên Khôi",
                "Kido",
                "Khuyen",
                "Khuu Bao",
                "thucnu",
                "Giang Nguyen",
                "Lê Phan Quỳnh",
                "Linh",
                "Lê Ngọc Nguyên Phương",
                "Khánh Ngô",
                "Ha Anh",
                "Luan Le",
                "Liên Vũ",
                "Le Quoc Dat",
                "Mia Duong",
                "Nthongyen",
                "Ngoc Diem",
                "thư",
                "Thuy Nguyen",
                "Linh Dương",
                "Mimyysomething",
                "Đan Trần",
                "Tu Do Thu Ha",
                "bong",
                "Warheit Sieg",
                "Dang Minh Ngoc",
                "sa xau cho",
                "Hoang Hien",
                "Phạm Thị  Ngát ",
                "Phương Anh",
                "My Uyen"
            ],
            [
                "Uyên Khôi",
                "Lê Phan Quỳnh",
                "Linh",
                "Khánh Ngô",
                "Hung Phan",
                "Linh Kana",
                "Giang Nguyen",
                "Lê Ngọc Nguyên Phương",
                "phuong191",
                "Kido",
                "Khuu Bao",
                "Luan Le",
                "Mia Duong",
                "Nthongyen",
                "Thuy Nguyen",
                "Mai Tuyết",
                "Linh Dương",
                "Mimyysomething",
                "Oanh Oanh",
                "Đan Trần",
                "Tu Do Thu Ha",
                "bong",
                "Ngô Thị Ngát",
                "Dang Minh Ngoc",
                "Hoang Hien",
                "Phạm Thị  Ngát ",
                "Phương Anh",
                "Pham Nhat Quang",
                "Huy-Thang Cu"
            ],
            [
                "Duyên  Đỗ",
                "Duong",
                "Lê Phan Quỳnh",
                "phuong191",
                "Lê Ngọc Nguyên Phương",
                "luong bao anh",
                "Lindy Tran",
                "Dương Nguyễn",
                "Matthew",
                "Kido",
                "nguyen ngoc lam",
                "Sách Chuyền Tay",
                "Hạt  Dẻ",
                "Linh Dương",
                "Oanh Oanh",
                "Đan Trần",
                "Tu Do Thu Ha",
                "bong",
                "Daisy Franz",
                "Gia Lệ",
                "Phạm Thị  Ngát "
            ],
            [
                "Huyền Chi",
                "Kido",
                "Nguyen Hai Long",
                "Linh",
                "Kieu Nguyen",
                "Trang Cao",
                "Lê Phan Quỳnh",
                "Oanh Oanh",
                "Đàm Thanh",
                "Thang Truong",
                "Thu Hien",
                "Linh Dương",
                "Sun",
                "Đan Trần",
                "Tu Do Thu Ha",
                "bong",
                "Thanh Hung",
                "Wireless LAN"
            ],
            [
                "phuong191",
                "Linh",
                "Huyền Chi",
                "Lê Phan Quỳnh",
                "Duong",
                "Đàm Thanh",
                "Vi Vo",
                "Kido",
                "Trang Cao",
                "Thang Truong",
                "Thu Hien",
                "Nthongyen",
                "Nguyen Hai Long",
                "Linh Dương",
                "Tu Do Thu Ha",
                "Giang Nguyen",
                "bong",
                "Thanh Hung",
                "Thanh",
                "Wireless LAN"
            ],
            [
                "Uyên Khôi",
                "Khánh Ngô",
                "Duong",
                "Lê Ngọc Nguyên Phương",
                "Linh",
                "Lê Phan Quỳnh",
                "kem cá nyom nyom",
                "Kido",
                "Giang Nguyen",
                "Linh Kana",
                "Luan Le",
                "Thanh Pham Van",
                "Mia Duong",
                "Nthongyen",
                "Phạm Thủy",
                "Kiều Trinh",
                "Thuy Nguyen",
                "Linh Dương",
                "Mimyysomething",
                "Phùng Khôi",
                "Đan Trần",
                "Tu Do Thu Ha",
                "bong",
                "Dang Minh Ngoc",
                "Hoang Hien",
                "Sách Chuyền Tay",
                "Phạm Thị  Ngát ",
                "Phương Anh",
                "Pham Nhat Quang",
                "Huy-Thang Cu"
            ]
        ],
        "user_rate": [
            [
                "really liked it",
                "it was amazing",
                "liked it",
                "it was amazing",
                "it was amazing",
                "liked it",
                "really liked it",
                "really liked it",
                "it was amazing",
                "really liked it",
                "really liked it",
                "it was amazing",
                "it was amazing",
                "really liked it",
                "liked it",
                "it was amazing",
                "liked it",
                "it was ok",
                "it was amazing",
                "liked it",
                "it was amazing",
                "really liked it",
                "liked it",
                "really liked it",
                "it was amazing",
                "really liked it",
                "really liked it",
                "it was amazing",
                "really liked it",
                "liked it"
            ],
            [
                "it was amazing",
                "liked it",
                "really liked it",
                "really liked it",
                "it was ok",
                "it was amazing",
                "really liked it",
                "it was amazing",
                "really liked it",
                "liked it",
                "it was amazing",
                "really liked it",
                "liked it",
                "liked it",
                "did not like it",
                "it was amazing",
                "really liked it",
                "really liked it",
                "it was amazing",
                "liked it",
                "liked it",
                "it was amazing",
                "really liked it",
                "liked it",
                "really liked it",
                "it was amazing",
                "it was ok",
                "really liked it",
                "really liked it"
            ],
            [
                "really liked it",
                "liked it",
                "really liked it",
                "it was ok",
                "liked it",
                "it was amazing",
                "liked it",
                "it was amazing",
                "really liked it",
                "liked it",
                "it was amazing",
                "it was ok",
                "it was amazing",
                "it was ok",
                "it was amazing",
                "liked it",
                "it was amazing",
                "liked it",
                "really liked it",
                "really liked it",
                "it was amazing",
                "it was ok",
                "really liked it",
                "liked it",
                "it was ok",
                "liked it",
                "really liked it",
                "liked it",
                "liked it",
                "it was ok"
            ],
            [
                "it was amazing",
                "liked it",
                "really liked it",
                "it was ok",
                "it was amazing",
                "liked it",
                "really liked it",
                "really liked it",
                "liked it",
                "really liked it",
                "liked it",
                "it was amazing",
                "liked it",
                "liked it",
                "liked it",
                "it was amazing",
                "it was amazing",
                "really liked it",
                "liked it",
                "liked it",
                "really liked it",
                "really liked it",
                "liked it",
                "really liked it"
            ],
            [
                "liked it",
                "really liked it",
                "it was amazing",
                "it was amazing",
                "it was amazing",
                "it was amazing",
                "it was amazing",
                "it was ok",
                "it was amazing",
                "really liked it",
                "it was amazing",
                "it was amazing",
                "really liked it",
                "it was amazing",
                "liked it",
                "liked it",
                "it was amazing",
                "it was ok",
                "it was amazing"
            ],
            [
                "really liked it",
                "liked it",
                "liked it",
                "it was amazing",
                "really liked it",
                "it was amazing",
                "really liked it",
                "it was amazing",
                "it was amazing",
                "it was amazing",
                "really liked it",
                "really liked it",
                "really liked it",
                "liked it",
                "really liked it",
                "it was amazing",
                "it was amazing",
                "it was amazing"
            ],
            [
                "liked it",
                "it was ok",
                "did not like it",
                "it was amazing",
                "it was amazing",
                "really liked it",
                "really liked it",
                "really liked it",
                "liked it",
                "really liked it",
                "really liked it",
                "it was amazing",
                "it was ok",
                "it was amazing",
                "it was amazing",
                "really liked it",
                "really liked it",
                "liked it",
                "liked it",
                "liked it",
                "liked it"
            ],
            [
                "really liked it",
                "it was amazing",
                "it was amazing",
                "it was amazing",
                "really liked it",
                "really liked it",
                "it was amazing",
                "it was amazing",
                "it was amazing",
                "really liked it",
                "really liked it",
                "it was amazing",
                "it was amazing",
                "it was amazing",
                "it was amazing",
                "really liked it"
            ],
            [
                "really liked it",
                "really liked it",
                "it was amazing",
                "really liked it",
                "it was amazing",
                "it was amazing",
                "it was amazing",
                "it was amazing",
                "it was amazing",
                "it was amazing",
                "it was amazing",
                "it was amazing",
                "liked it",
                "it was amazing",
                "it was amazing"
            ],
            [
                "it was amazing",
                "it was amazing",
                "really liked it",
                "really liked it",
                "it was amazing",
                "it was amazing",
                "it was amazing",
                "it was amazing",
                "it was amazing",
                "it was amazing",
                "it was amazing",
                "it was amazing",
                "liked it",
                "liked it",
                "really liked it"
            ],
            [
                "it was amazing",
                "it was amazing",
                "really liked it",
                "really liked it",
                "it was amazing",
                "it was amazing",
                "it was amazing",
                "liked it",
                "it was amazing",
                "really liked it",
                "it was amazing",
                "really liked it",
                "it was amazing",
                "it was amazing"
            ],
            [
                "really liked it",
                "really liked it",
                "liked it",
                "really liked it",
                "really liked it",
                "liked it",
                "it was ok",
                "it was amazing",
                "it was ok",
                "liked it",
                "it was amazing",
                "really liked it",
                "it was amazing",
                "it was amazing",
                "it was ok",
                "really liked it",
                "liked it",
                "it was ok"
            ],
            [
                "it was amazing",
                "it was amazing",
                "it was amazing",
                "it was amazing",
                "it was amazing",
                "it was amazing",
                "it was ok",
                "it was amazing",
                "really liked it",
                "it was amazing",
                "really liked it",
                "it was amazing",
                "it was amazing",
                "liked it"
            ],
            [
                "really liked it",
                "really liked it",
                "really liked it",
                "it was amazing",
                "it was amazing",
                "liked it",
                "it was amazing",
                "it was amazing",
                "it was amazing",
                "it was amazing",
                "it was amazing",
                "really liked it",
                "it was amazing",
                "really liked it"
            ],
            [
                "it was amazing",
                "really liked it",
                "it was amazing",
                "it was amazing",
                "really liked it",
                "it was amazing",
                "it was amazing",
                "it was amazing",
                "really liked it",
                "it was amazing",
                "it was amazing",
                "really liked it"
            ],
            [
                "it was amazing",
                "really liked it",
                "it was amazing",
                "it was amazing",
                "really liked it",
                "really liked it",
                "it was amazing",
                "liked it",
                "really liked it",
                "it was amazing",
                "it was ok",
                "really liked it",
                "it was amazing"
            ],
            [
                "it was amazing",
                "really liked it",
                "it was amazing",
                "really liked it",
                "it was amazing",
                "it was amazing",
                "it was amazing",
                "really liked it",
                "really liked it",
                "it was amazing",
                "it was amazing",
                "really liked it"
            ],
            [
                "it was amazing",
                "it was amazing",
                "it was amazing",
                "really liked it",
                "it was amazing",
                "it was amazing",
                "really liked it",
                "it was amazing",
                "really liked it",
                "it was amazing",
                "really liked it",
                "really liked it"
            ],
            [
                "it was amazing",
                "really liked it",
                "it was amazing",
                "it was amazing",
                "it was amazing",
                "really liked it",
                "really liked it",
                "it was amazing",
                "it was amazing",
                "it was amazing",
                "it was amazing"
            ],
            [
                "it was amazing",
                "it was amazing",
                "really liked it",
                "really liked it",
                "really liked it",
                "it was amazing",
                "it was amazing",
                "really liked it",
                "it was amazing",
                "really liked it",
                "it was amazing"
            ],
            [
                "it was amazing",
                "liked it",
                "liked it",
                "did not like it",
                "it was amazing",
                "liked it",
                "it was amazing",
                "liked it",
                "liked it",
                "really liked it",
                "it was amazing",
                "it was amazing",
                "it was amazing"
            ],
            [
                "really liked it",
                "it was amazing",
                "it was amazing",
                "it was amazing",
                "really liked it",
                "really liked it",
                "liked it",
                "it was amazing",
                "it was amazing",
                "it was amazing",
                "it was amazing"
            ],
            [
                "really liked it",
                "it was amazing",
                "it was amazing",
                "it was amazing",
                "it was amazing",
                "liked it",
                "liked it",
                "it was amazing",
                "really liked it",
                "it was amazing",
                "it was amazing"
            ],
            [
                "really liked it",
                "it was amazing",
                "it was amazing",
                "it was amazing",
                "it was amazing",
                "it was amazing",
                "it was amazing",
                "really liked it",
                "it was amazing",
                "it was amazing"
            ],
            [
                "really liked it",
                "it was amazing",
                "it was amazing",
                "it was amazing",
                "liked it",
                "it was amazing",
                "it was amazing",
                "it was amazing",
                "really liked it",
                "liked it",
                "really liked it"
            ],
            [
                "really liked it",
                "it was amazing",
                "it was amazing",
                "really liked it",
                "really liked it",
                "really liked it",
                "really liked it",
                "it was ok",
                "it was amazing",
                "it was amazing",
                "it was amazing"
            ],
            [
                "really liked it",
                "it was amazing",
                "it was amazing",
                "it was amazing",
                "really liked it",
                "it was amazing",
                "really liked it",
                "really liked it",
                "it was amazing",
                "it was amazing"
            ],
            [
                "it was amazing",
                "it was amazing",
                "it was amazing",
                "it was amazing",
                "really liked it",
                "really liked it",
                "it was amazing",
                "really liked it",
                "really liked it",
                "really liked it"
            ],
            [
                "it was amazing",
                "it was amazing",
                "it was amazing",
                "it was amazing",
                "it was amazing",
                "really liked it",
                "liked it",
                "it was amazing",
                "really liked it",
                "really liked it"
            ],
            [
                "really liked it",
                "liked it",
                "it was amazing",
                "liked it",
                "it was amazing",
                "it was amazing",
                "it was amazing",
                "it was amazing",
                "it was amazing",
                "really liked it"
            ]
        ],
        "date_post": [
            [
                "Jan 03, 2017"
            ],
            [
                "Aug 27, 2014"
            ],
            [
                "Jun 04, 2012"
            ],
            [],
            [
                "Jun 29, 2017"
            ],
            [
                "Jan 24, 2017",
                "Sep 01, 2017"
            ],
            [
                "Apr 28, 2012"
            ],
            [
                "Jan 25, 2017"
            ],
            [
                "Jan 02, 2017"
            ],
            [],
            [],
            [],
            [],
            [
                "Jan 20, 2018"
            ],
            [],
            [],
            [],
            [],
            [
                "Feb 02, 2019"
            ],
            [
                "Jan 27, 2017"
            ],
            [
                "Mar 25, 2019",
                "Apr 24, 2020"
            ],
            [
                "Jan 28, 2017"
            ],
            [
                "Jan 27, 2017"
            ],
            [],
            [
                "Jan 31, 2017"
            ],
            [
                "Feb 01, 2017"
            ],
            [
                "Jan 16, 2019"
            ],
            [],
            [],
            [
                "Feb 02, 2017"
            ]
        ],
        "review_content": [
            [
                "Ở tập này mình được gặp một nhân vật mới: Văn Châu. So với phim thì Văn Châu xuất hiện ở phần 2, mà phần 2 lại là phần mình xem không đầy đủ lắm nên không thể so sánh được. Mình chỉ có thể nói là mình vẫn rất thích tập truyện này, và rất thích luôn Văn Châu. Có Văn Châu ngay từ tập 6, những cuộc phiêu lưu của các bạn nhỏ hẳn là sẽ thú vị hơn nhiều đây!"
            ],
            [
                "i love it"
            ],
            [
                "Truyện viết về tuổi học trò của NNA lúc nào cũng dễ thương,trong trẻo. Con nít buông đồng tiền ra thì dễ dàng hơn rất nhiều so với \"người lớn\" nhỉ? "
            ],
            [],
            [
                "Tướng quân (1997)Thích nhất nhỏ Hạnh: phó học tập kiêm tổ trưởng, ngoan ngoãn, giúp việc cho cô chủ nhiệm, giống bạn Kim Yến hồi lớp 3 và 4 của mình vậy: lớp trưởng, viết chữ đẹp, học giỏi... -> mẫu người mình hướng đến và đã thành công ở những năm học trò: vừa giữ những vị trí quan trọng vừa học giỏi nhất nhì khối nên được thầy cô yêu thương (nhưng cũng bị nhiều bạn ghét, hic)."
            ],
            [
                "Ở tập 8 này Long và Quý cùng nhau về quê của Tiểu Long chơi, thế nào lại xảy ra đụng độ với thằng em con của người dì kế. Suốt mấy ngày liền, dù bị thằng Tắc Kè Bông suốt ngày châm chọc, Tiểu Long đã xử sự đúng chất con nhà võ, không ỷ mình biết võ mà khinh thường người khác, lại còn lo cho Tắc Kè Bông bị mất mặt trước bọn trẻ trong làng. (view spoiler)[Mình thích cách mà tác giả để Tiểu Long giải nguy cho thằng em trời đánh của mình trước bọn nhóc Xóm Dưới. Thế là tất cả mấy đứa nhóc Xóm Dưới, Xóm Trên đứa nào cũng nể và phục Tiểu Long sát đất. (hide spoiler)]Có đọc truyện theo thứ tự mới thấy dễ hiểu mạch truyện hơn, trình tự được sắp xếp theo thứ tự thời gian chứ không như kiểu chọn những tập nổi bật để làm phim rồi các mốc thời gian bị đảo lộn hết lên :3",
                "Có vẻ là 1 phần nhg diễn đạt hơi dài, và giọng văn chân chất giản dị. Có lẽ đó là lối văn phong của tác giả"
            ],
            [
                "Đọc lại Kính vạn hoa sau nhiều năm, không hiểu là mình không còn trẻ nữa, hay là vì NNA đã sức cùng lực kiệt rồi, mà truyên không còn thấy hay như ngày xưa nữa. Kết cục thấy cũng không thoả đáng mấy, không dễ thương và trong trẻo như những truyện ban đầu, như cuốn về Tiểu Long và chú gấu bông cho em gái chẳng hạn.Mà thôi, cái gì rồi cũng phải đến lúc chào tạm biệt, nhưng mình vẫn yêu Kính vạn hoa lắm lắm!"
            ],
            [
                "Thật ra càng đọc thì mình càng phát hiện chú Ánh rất hay tự đặt nhân vật vào một suy nghĩ/hành động nào đấy, sau đấy chú lại tự đưa ra lý do để giải thích. Ví dụ như là Quý Ròm là nhà khoa học nhưng nhà khoa học thì đôi khi cũng phải sợ ma, hay là Tiểu Long ban đầu không tin chuyện có ma nhưng thấy bạn sợ nên cũng có đôi chút hãi hùng,... (ví dụ hình như chưa thể hiện rõ lắm điều mình muốn nói thì phải -_- ) Nói thế nhưng thật ra mình cũng rất thích cách Quý Ròm trừ ma, rất thông minh và hiểu chuyện."
            ],
            [
                "Cuốn truyện này chính xác là những gì mình đã xem trên màn ảnh luôn, và sự xuất hiện nhiều hơn của Hạnh trong tập 3 này cũng làm mình siêu mãn nhãn :3 Hồi nhỏ khi xem phim thì nghĩ bộ 3 cũng bình thường thôi, chả phải xuất sắc gì mấy, mật mã thì cũng đâu phải khó giải cho cam. Nhưng giờ sau khi kinh qua bao nhiêu cái teambuilding rồi mới thấu, để giải được từng đấy mật mã, lại còn bị bắt chạy khắp Vũng Tàu thì đúng là một điều siêu siêu khó nhằn *tâm sự của một đứa từng chạy trạm chỉ trong một khu du lịch nhỏ thôi mà còn giải không hết nổi mật thư phải gọi điện hỏi BTC*"
            ],
            [],
            [],
            [],
            [],
            [
                "Mình coi phim hồi nhỏ rồi. Giờ không nhớ gì nhiều, ngoài cái điệu bộ của Quý ròm (Ngọc trai), cái quệt mũi của Tiểu long, với cái mắt kiếng của con Hạnh. Trên TV tụi nó lớn quá héng, tưởng như cấp 3, ai dè đọc truyện thì tụi nó mới đọc lớp 8 hà. Đương nhiên rằng: trong phim thì không đủ tiền, với không đủ lâu để lột tả hết được nhân vật, đọc truyện thú hơi chỗ đó. Thằng Quý ròm bây giờ trông nó bớt lông bông, bớt I-know-it-all mà có cảm giác nó tinh tế, rộng lượng kiểu gì. À, thằng Quý ròm có anh, có bà, thằng Long có 2 anh, có ba sửa xe, có mẹ bán tạp hoá, không biết hồi đó trên TV có chiếu không, nhưng mà hổng nhớ là có.Tập 1 và Tập 2: Nhà Ảo Thuật với những con gấu bông, thực chất là một mạch truyện. Mình thấy nên gom lại là: những con gấu bông thôi là được rồi.Về nhân vật thì tự nhiên thích Quý ròm hơi chục lần, mới lớp 8 mà thí nghiệm tùm lum, hỏi mấy cái khoa học là biết liền. Giỏi ghê. Khỏi nói cách viết đi ha, NNA mà. Nói thật là vì trên TV nó hơi khác nên mình cũng hơi chật vật để định hình lại nhân vật trong truyện, mình muốn tẩy đi hình ảnh cửa Ngọc trai, Tiểu Long,.... mà hồi thấy chật vật quá nên vẫn để mặt tụi nó trong óc, nhưng thu nhỏ cái size lại. Hê hê.Tập 1 và tập 2 dễ thương. Nhiều người nói là nó trông giả tạo, chắc họ nghĩ vậy, căn bản vì bây giờ con người ta ít tình cảm hơn hồi xưa phải không ta? Mà thiệt, giờ đứa nào đòi gấu bông thì cho nó 2 ngàn đi ra net coi \"Chơi búp bê cùng chi Thơ Nguyễn\" là xong. Tình cảm giờ đâu còn ràng buộc vô cái này cái kia nữa đâu, lãng mạng đã cỗ hủ, giờ lãng xẹt mới là mốt.Có đoạn chiếu TV cho cả nhà xem thì thấy hơi thiếu. Mình còn nhớ hồi đó coi thấy đau đáu hơi nhiều. NNA vẽ đoạn này được có vài ba câu, thấy không đã. Rồi còn đoạn chọi xoài, thiệt là chắc coi chương trình dự báo thời tiết có khi còn bất ngờ hơn. Hình như NNA có cái gu: đi qua bớt chợt một chỗ nào đó, phá gì đó, hay thương gì đó, nói chung là gắn một phần mình với nó, sau đó thì cái cảnh vật đó sẽ \" bất ngờ\" quay lại. Mà hơi buồn là hổng thấy bất ngờ chi. Tập 3 mạch truyện sáng tạo. Thiệt không xuất sắc kém gì sherlock holmes ( nói hơi quá). Lâu lâu tác giả cũng trích dẫn nhiều kiến thức hay ho, làm mềnh xuýt xoa ngưỡng mộ. Cái kết cũng hay, nút thắt nào cũng hay. Hơi tiếc là vì coi phim rồi, nên hơi đoán được ti tí ( vì quên mà). Biết là sẽ không có những đoạn tác giả ngõ một vài comment như là người dẫn chuyện. Giống như là trong Harry potter and the soccerers stone ấy, khi đập xong con Troll, J.K.Rowling có add : \"But from that moment on, Hermione Granger became their friend. There are some things you can't share without ending up liking each other, and knocking out a twelve-foot mountain troll is one of them\". Như vậy thì người đọc không bị cuốn luôn theo mạch câu chuyện, mà bỏ sách xuống, mỉm cười, liên tả vơ vẫn rồi mới vãn sách tiếp. Vậy thì hay hơn. Cơ mà, chưng hửng vậy mới ra NNA, nhờ."
            ],
            [],
            [],
            [],
            [],
            [
                "Một trong những series truyện yêu thích của tôi, Kính Vạn Hoa chan chứa tình bạn chân thành, lòng dũng cảm và nhiệt huyết tuổi trẻ qua bộ ba Hạnh, Qúy Ròm và Tiểu Long. Ba người bạn này, mỗi người một đức tính khác nhau, đã gây dựng những giây phút tuổi thơ hồn nhiên, vui tươi, đồng thời trở thành hình mẫu tình bạn lý tưởng cho các bạn trẻ noi theo."
            ],
            [
                "Mình đã luôn nghĩ rằng nghề giáo là một nghề cao quý vì các thầy cô đào tạo ra không chỉ một mà rất nhiều thế hệ học trò. Một người thầy tốt sẽ đem lại những ảnh hưởng rất tích cực nơi học sinh, và những người học sinh tốt sẽ luôn là nguồn động viên rất lớn cho những người thầy. Mình đã từng gặp những cô giáo rất tuyệt vời, nhờ có cô mà mới có mình như bây giờ. Nhưng mình cũng đã gặp những giáo viên thật tệ mà chỉ họ mới thấy được phần xấu xa nhất nơi con người mình.Vậy thôi, đó là những điều mà tập sách này đã gợi lại cho mình khi đọc. Cô giáo Trinh luôn là một người thầy tuyệt vời và chính sự ấm áp, bao dung và tấm lòng nhân hậu của cô đã \"tôi\" nên một cậu học sinh rồi sẽ ngày càng trở nên lương thiện hơn như Quới Lương."
            ],
            [
                "                    click here.",
                "Đọc chơi giải trí :) "
            ],
            [
                "Tự nhiên lúc đọc tập này mình có nhớ tới một tập phim nào đó mà ở cuối phim Hạnh cũng tham gia vô đội quân đánh nhau luôn, mà Hạnh vận dụng mấy ngón balê ấy. Mình không nhớ đó là tập phim nào, lại tự dưng nghĩ đó sẽ là tập này chứ, thế mà hóa ra lại là không phải :sỞ tập này thì mấy trò nghịch ngợm của nhà khoa học lừng danh Quý ròm đã kịp phát huy hết tác dụng rồi chứ không còn là mấy trò phá phách như ở những tập trước. Sự chân thành của nhóm bạn cũng đã làm một thằng nhóc quậy phá như Bò Lục cảm động và phần nào đã trở thành một cậu nhóc đáng yêu hơn trước. Không biết đảng Chim Ưng có còn hoạt động không, nhưng mình rất mong là sẽ gặp lại Bò Lục trong một tập sắp tới nào đấy!"
            ],
            [
                "Càng đọc thì rốt cuộc hong biết Kính Vạn Hoa nên được xếp loại vào truyện thiếu nhi, hành động hay là trinh thám nữa :))) Ở tập này, Mạnh lên Xì Gòn chơi rồi tình cờ nổi máu thám tử lần theo dấu vết của tụi băng đảng Chim Ưng. Trong quá trình đó thì kết thân được với Tùng, Văn Châu và tụi nhóc bạn Tùng (Tùng là em trai của Hạnh). Tập này vẫn chưa thực sự kết thúc hẳn vì thù oán của bọn Mạnh với tụi đảng Chim Ưng vẫn còn kéo dài đến tập 12, nên hãy đợi ngày mai mình đọc tiếp tập 12 xem sao :D"
            ],
            [],
            [
                "Xích mích, hiểu lầm, thật ra mà nói thì là do người ta chưa bày tỏ thật chân thành suy nghĩ mình với nhau thôi. Như cô Bốn Loan và gia đình Hạnh, như Hưng sún và Tùng. Và tất cả những khúc mắc đó đã được giải quyết chỉ bằng một khu vườn chung đáng yêu ngày ngày có tiếng vàng anh réo rắt. Ở thành phố bây giờ cũng thật khó tìm được những mảng xanh khi mà chung cư cứ thay nhau mọc lên nườm nượp như vậy, ngay cả cái \"tình cùng tầng, nghĩa cùng chung cư\" như hai gia đình đã có với nhau thì lại càng khó tìm hơn."
            ],
            [
                "Nếu đột nhiên trong lớp bạn có một đứa... bị ghẻ, thì bạn có dám chơi với nó hông?Ở tập này, mình cảm giác là tác giả viết mọi chuyện hơi quá lên một chút. Chuyện bị mấy đứa bạn châm chọc, rồi từ bị châm chọc mà chúng nó bị thầy phạt nên chúng nó đâm cay cú là mấy chuyện hết sức bình thường và đời thường của đám học trò siêu quậy, nhưng đến cái mức mà chúng bạn không dám lại gần, rồi không dám động vào ly nước chanh chỉ vì mình đón ly nước chanh từ người phục vụ đưa sang cho tụi nó thì có lẽ là hơi bị cường điệu hóa quá rồi. Dẫu thế thì câu chuyện này cũng đã có một kết thúc đẹp ♥"
            ],
            [
                "Chẳng biết vì lâu rồi không đọc truyện Nguyễn Nhật Ánh hay vì già rồi mà mình thấy truyện này hay ghêeeeeee. Chắc vì nó kể về tuổi thơ và nhắc mình nhớ hình ảnh của mình ngày xưa. Bởi vậy mà người ta nói, đôi khi người mình nhớ nhất lại chính là mình của ngày xưa và nếu có khi nào nhớ về ngày xưa thì tôi khuyên bạn nên tìm đến chú Ánh.PS: mình còn có một tham vọng không hề nhỏ là sẽ đọc hết 45 tập của bộ truyện này =))"
            ],
            [],
            [],
            [
                "Đúng như ở phần giới thiệu, ở tập này Quý ròm đã tập tành làm thơ và anh chàng đã chuốc lấy một lô lốc những rắc rối từ cái công việc tập sự đó của mình. Cũng qua tập này lại làm mình một lần nữa hiểu rằng có một cô em tinh quái như nhỏ Diệp đôi khi cũng không phải là điều phiền phức, vì cô em đó thực ra thì rất là thương mình, lại cùng với những đứa bạn thân chí cốt như Tiểu Long, nhỏ Hạnh những khi cần thì chúng nó luôn có ở đó và từ bi quảng đại quăng cho đứa sắp chết đuối là mình mấy cái phao luôn. Đoạn cuối mình cứ nghĩ Tiểu Long và Hạnh sẽ lén đem gửi những bài thơ toán học của Bình Minh cho tòa soạn cơ, để dăm hôm trên báo lại chễm chệ bài thơ của Bình Minh nhưng nằm ở chuyên mục \"Thơ của bạn đọc\" chẳng hạn. Nhưng ngẫm lại thì bài thơ \"Nhà em\" của thi sĩ Bình Minh cũng đâu đến nỗi nào, cũng dễ thương đáng yêu mà.Nhà em có một người bàTiếp theo là mẹ, kế là ba emSau ba em, tới anh emCộng em vào nữa là thêm một ngườiEm em đứng ở sau đuôiĐếm đi đếm lại sáu người không hơnCả nhà gắn bó keo sơnTừ trên xuống dưới xanh rờn niềm vui!"
            ]
        ],
        "list_comment": [
            [
                []
            ],
            [
                []
            ],
            [
                []
            ],
            [],
            [
                []
            ],
            [
                [],
                []
            ],
            [
                []
            ],
            [
                []
            ],
            [
                []
            ],
            [],
            [],
            [],
            [],
            [
                []
            ],
            [],
            [],
            [],
            [],
            [
                []
            ],
            [
                []
            ],
            [
                [],
                []
            ],
            [
                []
            ],
            [
                []
            ],
            [],
            [
                []
            ],
            [
                []
            ],
            [
                []
            ],
            [],
            [],
            [
                []
            ]
        ]
    }
}